{"href": "https://api.ebay.com/buy/browse/v1/item_summary/search?q=adidas&limit=5&offset=0", "total": 1653024, "next": "https://api.ebay.com/buy/browse/v1/item_summary/search?q=adidas&limit=5&offset=5", "limit": 5, "offset": 0, "itemSummaries": [{"itemId": "v1|156576977853|457850557569", "title": "adidas men Supernova Rise Running Shoes", "itemGroupHref": "https://api.ebay.com/buy/browse/v1/item/get_items_by_item_group?item_group_id=156576977853", "leafCategoryIds": ["15709"], "categories": [{"categoryId": "15709", "categoryName": "Athletic Shoes"}, {"categoryId": "11450", "categoryName": "Clothing, Shoes & Accessories"}, {"categoryId": "260012", "categoryName": "Men"}, {"categoryId": "93427", "categoryName": "Men's Shoes"}], "image": {"imageUrl": "https://i.ebayimg.com/images/g/GjsAAOSwrc9nbDwB/s-l225.jpg"}, "price": {"value": "56.00", "currency": "USD"}, "itemGroupType": "SELLER_DEFINED_VARIATIONS", "itemHref": "https://api.ebay.com/buy/browse/v1/item/v1%7C156576977853%7C457850557569", "seller": {"username": "adidas_official", "feedbackPercentage": "98.2", "feedbackScore": 534243}, "marketingPrice": {"originalPrice": {"value": "140.00", "currency": "USD"}, "discountPercentage": "60", "discountAmount": {"value": "84.00", "currency": "USD"}, "priceTreatment": "LIST_PRICE"}, "condition": "New with box", "conditionId": "1000", "thumbnailImages": [{"imageUrl": "https://i.ebayimg.com/images/g/GjsAAOSwrc9nbDwB/s-l1600.jpg"}], "shippingOptions": [{"shippingCostType": "FIXED", "shippingCost": {"value": "0.00", "currency": "USD"}}], "buyingOptions": ["FIXED_PRICE"], "epid": "6068283265", "itemWebUrl": "https://www.ebay.com/itm/156576977853?_skw=adidas&hash=item2474b713bd:g:GjsAAOSwrc9nbDwB&amdata=enc%3AAQAJAAAA4H%2FqIbIc6o8B4%2BvpFzQyE8WmvSm555OW3%2B4OAjCgSlxLjAiEu8N5gjA3ExrIfA9IZwpMFjDsATkhul0EXIFEaG9LdJZySNzAlc3erPhRSSeUvoaTS%2BQ9gocI8xVKFrKv%2Fbo2ySP7wGJAtbxR6jxAOEtCZdym9DE%2BaZelWP8a94j0LfX10a2Idnm7RkPwmfvStmXR2ipmWdGo7V%2BCtgpP4jZ%2B%2Bv2fAOhyuaDmPIyELJCJ3967%2BN2jG6p0BUuaWG3JJY0aB97izsMx45lNPLQAhCmOBeXDX8jeEx4%2FgS7IKzdr", "itemLocation": {"postalCode": "293**", "country": "US"}, "additionalImages": [{"imageUrl": "https://i.ebayimg.com/images/g/exgAAOSwgLhnbDwA/s-l225.jpg"}, {"imageUrl": "https://i.ebayimg.com/images/g/ccIAAOSwFkFnbDwA/s-l225.jpg"}, {"imageUrl": "https://i.ebayimg.com/images/g/QHQAAOSwModnbDwA/s-l225.jpg"}, {"imageUrl": "https://i.ebayimg.com/images/g/wI4AAOSwFA9nbDwA/s-l225.jpg"}, {"imageUrl": "https://i.ebayimg.com/images/g/Wx4AAOSwedBnbDwA/s-l225.jpg"}, {"imageUrl": "https://i.ebayimg.com/images/g/qWwAAOSwXT5nbDwA/s-l225.jpg"}], "adultOnly": false, "legacyItemId": "156576977853", "availableCoupons": false, "itemCreationDate": "2024-12-12T02:03:11.000Z", "topRatedBuyingExperience": false, "priorityListing": true, "listingMarketplaceId": "EBAY_US"}, {"itemId": "v1|156589152877|457876518180", "title": "adidas men AEROREADY Designed to Move Feelready Sport Tee", "itemGroupHref": "https://api.ebay.com/buy/browse/v1/item/get_items_by_item_group?item_group_id=156589152877", "leafCategoryIds": ["15687"], "categories": [{"categoryId": "15687", "categoryName": "T-Shirts"}, {"categoryId": "1059", "categoryName": "Men's Clothing"}, {"categoryId": "260012", "categoryName": "Men"}, {"categoryId": "185100", "categoryName": "Shirts"}, {"categoryId": "11450", "categoryName": "Clothing, Shoes & Accessories"}], "image": {"imageUrl": "https://i.ebayimg.com/images/g/MDMAAOSwAsNnbDwh/s-l225.jpg"}, "price": {"value": "7.00", "currency": "USD"}, "itemGroupType": "SELLER_DEFINED_VARIATIONS", "itemHref": "https://api.ebay.com/buy/browse/v1/item/v1%7C156589152877%7C457876518180", "seller": {"username": "adidas_official", "feedbackPercentage": "98.2", "feedbackScore": 534243}, "marketingPrice": {"originalPrice": {"value": "25.00", "currency": "USD"}, "discountPercentage": "72", "discountAmount": {"value": "18.00", "currency": "USD"}, "priceTreatment": "LIST_PRICE"}, "condition": "New with tags", "conditionId": "1000", "thumbnailImages": [{"imageUrl": "https://i.ebayimg.com/images/g/MDMAAOSwAsNnbDwh/s-l1600.jpg"}], "shippingOptions": [{"shippingCostType": "FIXED", "shippingCost": {"value": "0.00", "currency": "USD"}}], "buyingOptions": ["FIXED_PRICE"], "itemWebUrl": "https://www.ebay.com/itm/156589152877?_skw=adidas&hash=item247570da6d:g:MDMAAOSwAsNnbDwh", "itemLocation": {"postalCode": "293**", "country": "US"}, "additionalImages": [{"imageUrl": "https://i.ebayimg.com/images/g/4YAAAOSw8i9nbDwg/s-l225.jpg"}, {"imageUrl": "https://i.ebayimg.com/images/g/-38AAOSwr4pnbDwg/s-l225.jpg"}, {"imageUrl": "https://i.ebayimg.com/images/g/5owAAOSwMIpnbDwg/s-l225.jpg"}, {"imageUrl": "https://i.ebayimg.com/images/g/AXgAAOSwp6VnbDwg/s-l225.jpg"}, {"imageUrl": "https://i.ebayimg.com/images/g/kKYAAOSwsLhnbDwg/s-l225.jpg"}], "adultOnly": false, "legacyItemId": "156589152877", "availableCoupons": false, "itemCreationDate": "2024-12-18T14:02:54.000Z", "topRatedBuyingExperience": false, "priorityListing": false, "listingMarketplaceId": "EBAY_US"}, {"itemId": "v1|156222573601|457312392565", "title": "adidas men Clima Tech Tee", "itemGroupHref": "https://api.ebay.com/buy/browse/v1/item/get_items_by_item_group?item_group_id=156222573601", "leafCategoryIds": ["15687"], "categories": [{"categoryId": "15687", "categoryName": "T-Shirts"}, {"categoryId": "1059", "categoryName": "Men's Clothing"}, {"categoryId": "260012", "categoryName": "Men"}, {"categoryId": "185100", "categoryName": "Shirts"}, {"categoryId": "11450", "categoryName": "Clothing, Shoes & Accessories"}], "image": {"imageUrl": "https://i.ebayimg.com/images/g/004AAOSwXsZmtXsx/s-l225.jpg"}, "price": {"value": "7.50", "currency": "USD"}, "itemGroupType": "SELLER_DEFINED_VARIATIONS", "itemHref": "https://api.ebay.com/buy/browse/v1/item/v1%7C156222573601%7C457312392565", "seller": {"username": "adidas_official", "feedbackPercentage": "98.2", "feedbackScore": 534243}, "marketingPrice": {"originalPrice": {"value": "20.00", "currency": "USD"}, "discountPercentage": "63", "discountAmount": {"value": "12.50", "currency": "USD"}, "priceTreatment": "LIST_PRICE"}, "condition": "New with tags", "conditionId": "1000", "thumbnailImages": [{"imageUrl": "https://i.ebayimg.com/images/g/004AAOSwXsZmtXsx/s-l1600.jpg"}], "shippingOptions": [{"shippingCostType": "FIXED", "shippingCost": {"value": "0.00", "currency": "USD"}}], "buyingOptions": ["FIXED_PRICE"], "itemWebUrl": "https://www.ebay.com/itm/156222573601?_skw=adidas&hash=item245f974c21:g:004AAOSwXsZmtXsx", "itemLocation": {"postalCode": "293**", "country": "US"}, "additionalImages": [{"imageUrl": "https://i.ebayimg.com/images/g/PE0AAOSwvJdmtXsx/s-l225.jpg"}, {"imageUrl": "https://i.ebayimg.com/images/g/nH8AAOSwSXxmtXsx/s-l225.jpg"}, {"imageUrl": "https://i.ebayimg.com/images/g/siYAAOSw28RmtXsx/s-l225.jpg"}, {"imageUrl": "https://i.ebayimg.com/images/g/lPUAAOSwMvdmtXsx/s-l225.jpg"}, {"imageUrl": "https://i.ebayimg.com/images/g/9QgAAOSwYXtmtXsx/s-l225.jpg"}], "adultOnly": false, "legacyItemId": "156222573601", "availableCoupons": false, "itemCreationDate": "2024-05-23T17:08:58.000Z", "topRatedBuyingExperience": false, "priorityListing": false, "listingMarketplaceId": "EBAY_US"}, {"itemId": "v1|156576984620|457850508980", "title": "adidas men Supernova Prima Running Shoes", "itemGroupHref": "https://api.ebay.com/buy/browse/v1/item/get_items_by_item_group?item_group_id=156576984620", "leafCategoryIds": ["15709"], "categories": [{"categoryId": "15709", "categoryName": "Athletic Shoes"}, {"categoryId": "11450", "categoryName": "Clothing, Shoes & Accessories"}, {"categoryId": "260012", "categoryName": "Men"}, {"categoryId": "93427", "categoryName": "Men's Shoes"}], "image": {"imageUrl": "https://i.ebayimg.com/images/g/qPMAAOSwpJ1nbEB-/s-l225.jpg"}, "price": {"value": "64.00", "currency": "USD"}, "itemGroupType": "SELLER_DEFINED_VARIATIONS", "itemHref": "https://api.ebay.com/buy/browse/v1/item/v1%7C156576984620%7C457850508980", "seller": {"username": "adidas_official", "feedbackPercentage": "98.2", "feedbackScore": 534243}, "marketingPrice": {"originalPrice": {"value": "160.00", "currency": "USD"}, "discountPercentage": "60", "discountAmount": {"value": "96.00", "currency": "USD"}, "priceTreatment": "LIST_PRICE"}, "condition": "New with box", "conditionId": "1000", "thumbnailImages": [{"imageUrl": "https://i.ebayimg.com/images/g/qPMAAOSwpJ1nbEB-/s-l1600.jpg"}], "shippingOptions": [{"shippingCostType": "FIXED", "shippingCost": {"value": "0.00", "currency": "USD"}}], "buyingOptions": ["FIXED_PRICE"], "itemWebUrl": "https://www.ebay.com/itm/156576984620?_skw=adidas&hash=item2474b72e2c:g:qPMAAOSwpJ1nbEB-&amdata=enc%3AAQAJAAAA4H%2FqIbIc6o8B4%2BvpFzQyE8VzUPZgWhf9b9%2BsdkiITy1w8zjk%2B6EDJkoVI153VN%2FLP2vS%2FOoF6bnT6hR%2B2OhXXjQavXKOS0yInlm5As%2F0TyD0zKkvfNZSXvFozLMgjuwys1UIFw61VErny4s0VnSLp87d%2Ff6GyUPoYi9RXf1Oc4JQ3T74tkca6HWlbWnhvbWeh3GhVPoL0q9%2BPZvFt6yr3SFM%2FKmZ4SWeYMzqe3CkUNp4ScDlvDlb5vcJdqJhtpyYgIU2Ba%2BZ4d5VWDeY9s3uPA%2FKIByVhvCPdFumANubXkZw", "itemLocation": {"postalCode": "293**", "country": "US"}, "additionalImages": [{"imageUrl": "https://i.ebayimg.com/images/g/KaAAAOSwflZnbEB9/s-l225.jpg"}, {"imageUrl": "https://i.ebayimg.com/images/g/XQcAAOSwQSlnbEB9/s-l225.jpg"}, {"imageUrl": "https://i.ebayimg.com/images/g/FwYAAOSwzbxnbEB9/s-l225.jpg"}, {"imageUrl": "https://i.ebayimg.com/images/g/o70AAOSwNe1nbEB9/s-l225.jpg"}, {"imageUrl": "https://i.ebayimg.com/images/g/t4wAAOSwbQFnbEB9/s-l225.jpg"}, {"imageUrl": "https://i.ebayimg.com/images/g/yucAAOSwHB1nbEB9/s-l225.jpg"}], "adultOnly": false, "legacyItemId": "156576984620", "availableCoupons": false, "itemCreationDate": "2024-12-12T02:08:58.000Z", "topRatedBuyingExperience": false, "priorityListing": true, "listingMarketplaceId": "EBAY_US"}, {"itemId": "v1|156591605411|457882540661", "title": "adidas men Ottoman Polo Shirt", "itemGroupHref": "https://api.ebay.com/buy/browse/v1/item/get_items_by_item_group?item_group_id=156591605411", "leafCategoryIds": ["185076"], "categories": [{"categoryId": "185076", "categoryName": "Activewear Tops"}, {"categoryId": "1059", "categoryName": "Men's Clothing"}, {"categoryId": "260012", "categoryName": "Men"}, {"categoryId": "11450", "categoryName": "Clothing, Shoes & Accessories"}, {"categoryId": "185099", "categoryName": "Activewear"}], "image": {"imageUrl": "https://i.ebayimg.com/images/g/mFAAAOSwKuJnbDxL/s-l225.jpg"}, "price": {"value": "14.00", "currency": "USD"}, "itemGroupType": "SELLER_DEFINED_VARIATIONS", "itemHref": "https://api.ebay.com/buy/browse/v1/item/v1%7C156591605411%7C457882540661", "seller": {"username": "adidas_official", "feedbackPercentage": "98.2", "feedbackScore": 534243}, "marketingPrice": {"originalPrice": {"value": "70.00", "currency": "USD"}, "discountPercentage": "80", "discountAmount": {"value": "56.00", "currency": "USD"}, "priceTreatment": "LIST_PRICE"}, "condition": "New with tags", "conditionId": "1000", "thumbnailImages": [{"imageUrl": "https://i.ebayimg.com/images/g/mFAAAOSwKuJnbDxL/s-l1600.jpg"}], "shippingOptions": [{"shippingCostType": "FIXED", "shippingCost": {"value": "0.00", "currency": "USD"}}], "buyingOptions": ["FIXED_PRICE"], "itemWebUrl": "https://www.ebay.com/itm/156591605411?_skw=adidas&hash=item24759646a3:g:mFAAAOSwKuJnbDxL&amdata=enc%3AAQAJAAAA4H%2FqIbIc6o8B4%2BvpFzQyE8WPUgrrlCbh3jAXPFon7ThRr8PvxddyvrQLuBZ5m8OCNhNE5AV8ROY%2F8j%2BsNooYsuEcVw0QlyKBxz8MFR9wG7wqEHAOfYcFXJZVVQ%2Bxzd1Yl5hag1X8uFMSAHsY2qX4rCPRH39NhgKggZ12zkVGnpdC9GRcDk4dF%2FCXUe9QfVWn8seLOCEquspEZjHTQHtFeLnYPhdwH", "itemLocation": {"postalCode": "293**", "country": "US"}, "additionalImages": [{"imageUrl": "https://i.ebayimg.com/images/g/T4oAAOSwiqtnbDxL/s-l225.jpg"}, {"imageUrl": "https://i.ebayimg.com/images/g/buoAAOSw-RtnbDxL/s-l225.jpg"}, {"imageUrl": "https://i.ebayimg.com/images/g/7bwAAOSwsGFnbDxL/s-l225.jpg"}, {"imageUrl": "https://i.ebayimg.com/images/g/RrsAAOSwHZVnbDxL/s-l225.jpg"}, {"imageUrl": "https://i.ebayimg.com/images/g/-dAAAOSwHqdnbDxL/s-l225.jpg"}, {"imageUrl": "https://i.ebayimg.com/images/g/UrAAAOSwwdlnbDxL/s-l225.jpg"}], "adultOnly": false, "legacyItemId": "156591605411", "availableCoupons": false, "itemCreationDate": "2024-12-20T02:03:07.000Z", "topRatedBuyingExperience": false, "priorityListing": true, "listingMarketplaceId": "EBAY_US"}], "refinement": {}}